{
	"picture": "caraterre",
	"name": "Caraterre",
	"weight": 2.0,
	"size": 2.88,
	"gender": ["G", "F"],
	"abilities": ["terre"],
	"fails": ["eau", "nourriture", "electrique", "vol"],
	"description": "Tatou qui peut se mettre en boule et ne pers auqu'un points de vie ce qui est pratique puisqu'il n'a que 70 PV. Il n'a peut-être pas beaucoup de PV mais il a une grande deffense et de lourde attaque.",
	"pv": 70,
	"attaque": 100,
	"defense": 90,
	"attspe": 150,
	"defspe": 200,
	"speed": 10,
	"evolution": null
}