{
	"picture": "dragalo",
	"name": "Dragalo",
	"weight":90.5,
	"size": 1.7,
	"gender": ["G", "F"],
	"abilities": ["eau"],
	"fails": ["plante", "fleure"],
	"description": "Dragon qui crache de l'eau. S'il fait un grand jet, son eau peut être tranchante. .",
	"pv": 150,
	"attaque": 100,
	"defense": 100,
	"attspe": 129,
	"defspe": 110,
	"speed": 65,
	"evolution": null
}